<?xml version="1.0" encoding="UTF-8"?>
<svg width="264px" height="27px" viewBox="0 0 264 27" version="1.1" xmlns="http://www.w3.org/2000/svg" xmlns:xlink="http://www.w3.org/1999/xlink">
    <title>Group</title>
    <g id="Twisters" stroke="none" stroke-width="1" fill="none" fill-rule="evenodd">
        <g id="Twisters_Desktop" transform="translate(-325.000000, -7798.000000)">
            <g id="TEAM" transform="translate(-270.937995, 5448.000000)">
                <g id="Profiles" transform="translate(271.937995, 1818.318307)">
                    <g id="Profile-1" transform="translate(309.000000, 130.314130)">
                        <g id="Group-3" transform="translate(3.000000, 350.685870)">
                            <g id="Group" transform="translate(12.000000, 51.000000)">
                                <path d="M142.965338,20.8889024 C139.444275,23.4002878 135.134371,23.9599748 132.952381,24.0740741 C132.973462,24.0197268 132.994542,23.9656798 133.017456,23.9089304 C133.026316,23.8864108 133.034565,23.8656927 133.04373,23.8434734 C133.086197,23.738382 133.131718,23.6293871 133.179684,23.5164889 C133.191294,23.4885646 133.204126,23.4594392 133.216346,23.4309144 C133.255147,23.340836 133.29578,23.2483555 133.337941,23.1540735 C133.353523,23.1192432 133.368798,23.0844129 133.384991,23.048982 C133.497115,22.8015667 133.620848,22.54094 133.756497,22.269804 C133.775134,22.2322714 133.794687,22.1941382 133.813934,22.1563052 C133.868316,22.0494122 133.924531,21.9410179 133.982578,21.8314225 C134.001215,21.7959917 134.01924,21.7608611 134.038488,21.72513 C134.114256,21.583707 134.193078,21.4404823 134.274957,21.2951559 C134.28901,21.2705345 134.303675,21.2456128 134.317729,21.2209913 C134.387692,21.098785 134.459793,20.9750774 134.534339,20.8507692 C134.559697,20.8078318 134.585666,20.7651947 134.611634,20.7222573 C134.687097,20.5979492 134.765003,20.4727402 134.845048,20.347231 C134.862768,20.319607 134.879266,20.2925835 134.896986,20.2652597 C134.993528,20.115129 135.094043,19.9640976 135.197307,19.8127659 C135.223276,19.774933 135.250467,19.7371001 135.276436,19.6989669 C135.358925,19.5806639 135.442941,19.4620607 135.529402,19.3434575 C135.561176,19.2999196 135.592644,19.2563818 135.624723,19.2131441 C135.738375,19.0597106 135.854165,18.9065774 135.974844,18.7543449 C136.929579,17.5469943 137.993077,16.5210014 139.135093,15.704591 C139.284796,15.597698 139.437859,15.4932071 139.593672,15.390818 C139.783091,15.2668101 139.978316,15.1479066 140.176595,15.0308047 C141.11911,14.4756216 142.156639,14.0024098 143.278186,13.622279 C145.57841,12.8367955 147.770788,12.5905812 149.142857,12.5185185 C148.350351,14.5359741 146.47357,18.3835222 142.965338,20.8889024 M114.857143,12.5185185 C116.229569,12.590281 118.421724,12.8358947 120.721424,13.6192764 C122.282055,14.1528407 123.677091,14.8545513 124.868034,15.7042908 C126.04309,16.5444218 127.128321,17.5989395 128.095008,18.8396191 C128.212636,18.99005 128.325375,19.1407812 128.435976,19.2918126 C128.467751,19.3350502 128.498609,19.3785881 128.529773,19.4218257 C128.614098,19.5386274 128.696285,19.6557293 128.776333,19.7722306 C128.801692,19.8091628 128.827967,19.8463952 128.85302,19.8836276 C128.953538,20.0325572 129.051307,20.1811865 129.145409,20.3286148 C129.164657,20.3583407 129.182683,20.3883668 129.201626,20.4183929 C129.277702,20.5387977 129.35164,20.658602 129.423439,20.7781059 C129.450019,20.8222444 129.4766,20.866683 129.502876,20.9108214 C129.57498,21.0327275 129.644946,21.1534326 129.712772,21.2729365 C129.726827,21.2972577 129.741492,21.3221794 129.755241,21.3468008 C129.834372,21.4882239 129.910143,21.6275451 129.983469,21.7650648 C130.004551,21.8049995 130.025021,21.8443338 130.045797,21.8839683 C130.10018,21.9872581 130.153037,22.0899475 130.20406,22.1908353 C130.223919,22.2304698 130.244389,22.2704045 130.263943,22.3094385 C130.328409,22.4394516 130.391042,22.5679635 130.450314,22.6925719 C130.459785,22.7129897 130.468646,22.7325067 130.478117,22.7523239 C130.528835,22.8601177 130.577413,22.9661099 130.624159,23.0697001 C130.641879,23.108734 130.658989,23.1471675 130.676098,23.1853007 C130.715817,23.2744783 130.753702,23.361554 130.790365,23.4468282 C130.803503,23.4774549 130.817252,23.5089823 130.830084,23.5390085 C130.875607,23.6471025 130.918992,23.7509929 130.959627,23.8515805 C130.972459,23.8840087 130.984375,23.9143351 130.997207,23.9458625 C131.014928,23.9897007 131.031121,24.0317372 131.047619,24.0740741 C128.864325,23.9599748 124.55273,23.3996872 121.035506,20.8898031 C117.526225,18.3835222 115.649374,14.5353736 114.857143,12.5185185 M121.552301,5.77777778 C123.004922,6.53672225 125.449966,8.0406856 127.458426,10.3968343 C128.095442,11.1424587 128.651872,11.9344007 129.11207,12.7502584 C129.235164,12.9688296 129.352944,13.1922445 129.465706,13.420503 C129.502309,13.4943691 129.535075,13.5718681 129.570497,13.6469451 C129.644294,13.8028512 129.718977,13.9581517 129.787756,14.1179932 C129.829377,14.2142614 129.866571,14.3144651 129.906422,14.4125497 C129.964574,14.5554383 130.024202,14.6974187 130.078811,14.8433347 C130.118662,14.9508039 130.15438,15.0616031 130.192164,15.1705859 C130.24146,15.3116582 130.292232,15.4518222 130.338282,15.5962245 C130.374885,15.7109592 130.407061,15.8293267 130.441598,15.9461806 C130.483514,16.0887665 130.527202,16.2298387 130.565872,16.3748465 C130.598638,16.496544 130.626976,16.6218742 130.65738,16.7459936 C130.692508,16.8894877 130.729406,17.0323763 130.761582,17.178595 C130.78992,17.3063471 130.813535,17.4374293 130.839511,17.5669978 C130.86844,17.7135191 130.899139,17.8594351 130.925411,18.008681 C130.948436,18.1409741 130.967623,18.2762945 130.988286,18.4107067 C131.008654,18.5405779 131.029613,18.6704491 131.047619,18.8024395 C131.040239,18.8614719 131.034336,18.9189906 131.027546,18.978023 C131.018691,19.0552191 131.00954,19.1321126 131.001275,19.2087033 C130.999503,19.2253535 130.997437,19.2426091 130.995666,19.2592593 C130.977955,19.2280781 130.958177,19.1959887 130.940171,19.1645047 C130.879362,19.0582464 130.816487,18.9513827 130.752726,18.8436108 C130.705791,18.7645982 130.659151,18.6855856 130.610741,18.6056649 C130.541076,18.4918383 130.468755,18.3771036 130.395844,18.2623689 C130.348318,18.1875946 130.302269,18.1131229 130.253268,18.0377431 C130.17032,17.9105965 130.083534,17.7831471 129.996749,17.6556977 C129.953356,17.5921244 129.91203,17.5291565 129.867752,17.4655832 C129.734622,17.2745604 129.597064,17.083235 129.454488,16.8922123 C128.400076,15.4802789 127.208402,14.2738993 125.911345,13.3063737 C125.641543,13.1053609 125.360228,12.91343 125.07242,12.727251 C125.035521,12.7033353 124.999213,12.6788141 124.96202,12.6548984 C124.686609,12.4799204 124.402343,12.3128134 124.111582,12.1517609 C124.059924,12.1233043 124.008562,12.094545 123.956313,12.066391 C123.666734,11.9095768 123.37007,11.7597254 123.066026,11.6168368 C123.013187,11.5920129 122.959758,11.5680972 122.906329,11.5438788 C122.593725,11.4003847 122.275807,11.263248 121.949034,11.1348904 C121.938702,11.1309549 121.928961,11.1261112 121.918925,11.121873 C121.499462,8.98399273 121.489131,7.02926419 121.552301,5.77777778 M132.006274,2.88888889 C132.873012,4.22806026 134.195766,6.60037665 134.857143,9.45131827 C134.818886,9.49722222 134.783691,9.54435028 134.746352,9.59056026 C134.679633,9.6722693 134.614444,9.75489642 134.549867,9.83721751 C134.445504,9.97033898 134.343589,10.1043785 134.243816,10.2396422 C134.184748,10.319209 134.125374,10.3990819 134.068142,10.4798729 C133.962555,10.6273776 133.861558,10.7764124 133.761785,10.9263653 C133.715571,10.9952213 133.667827,11.0640772 133.623144,11.1335452 C133.484502,11.3483757 133.351064,11.5644303 133.224665,11.7823211 C133.221604,11.7872175 133.218238,11.7921139 133.215483,11.7970104 C133.211198,11.804661 133.207526,11.8123117 133.203241,11.8199623 C133.073475,12.0451977 132.949218,12.2756356 132.829552,12.5094397 C132.789154,12.5877825 132.751203,12.6682674 132.712335,12.7475282 C132.629701,12.9152307 132.548597,13.0844633 132.47086,13.2561441 C132.429543,13.347646 132.389144,13.4400659 132.349358,13.5324859 C132.276823,13.7008004 132.206738,13.8715631 132.138794,14.0435499 C132.10268,14.1350518 132.06626,14.2262476 132.03137,14.3189736 C132.015456,14.3608992 131.998011,14.4019068 131.982402,14.4444444 C131.966487,14.4006827 131.948124,14.3590631 131.931904,14.3156073 C131.897932,14.2253296 131.862124,14.1362759 131.826928,14.0469162 C131.758372,13.8733992 131.687981,13.7017185 131.614834,13.5318738 C131.575048,13.4394539 131.534649,13.3470339 131.493332,13.255532 C131.415595,13.0841573 131.334797,12.9149247 131.252163,12.7472222 C131.212989,12.6679614 131.175344,12.5874765 131.134946,12.5094397 C131.010995,12.2679849 130.883065,12.0292844 130.748709,11.7963983 C130.621698,11.5772834 130.487647,11.3600047 130.3487,11.1442561 C130.30371,11.0738701 130.25566,11.0047081 130.209446,10.9349341 C130.112428,10.7892655 130.014492,10.6445151 129.912576,10.5009887 C129.855957,10.4208098 129.797501,10.342161 129.739351,10.2629002 C129.640803,10.1288606 129.540418,9.99635122 129.437585,9.86445386 C129.37668,9.78611111 129.315164,9.70807439 129.25273,9.63064972 C129.215697,9.58474576 129.180501,9.53792373 129.142857,9.49201977 C129.802398,6.62241055 131.134946,4.23387476 132.006274,2.88888889 M142.447745,5.77777778 C142.510916,7.02996898 142.500289,8.98330253 142.08112,11.1191086 C142.07315,11.1221347 142.06577,11.1260686 142.058095,11.1290947 C141.728959,11.2574004 141.408383,11.3953896 141.09312,11.5397335 C141.042643,11.5624291 140.992165,11.5851247 140.942278,11.6087281 C140.637938,11.7509538 140.340387,11.9013498 140.049625,12.0587059 C139.998262,12.0865458 139.946899,12.1146884 139.895831,12.1431335 C139.605069,12.3041209 139.320211,12.4717656 139.043914,12.6472782 C139.006425,12.6708816 138.970412,12.6956954 138.933218,12.7196014 C138.644817,12.9066131 138.362321,13.0990716 138.090747,13.3012137 C137.617853,13.6537518 137.158243,14.0392742 136.713392,14.4556625 C135.971875,15.1495423 135.271686,15.9296653 134.620793,16.7884663 C134.606328,16.807228 134.59334,16.8265949 134.578876,16.8456592 C134.444564,17.0245004 134.3135,17.2036443 134.187454,17.3830907 C134.135206,17.4572296 134.086795,17.5310659 134.036022,17.6052049 C133.950417,17.7301819 133.864812,17.8548563 133.78334,17.9795307 C133.727844,18.0645635 133.675596,18.1483859 133.622166,18.2328135 C133.549845,18.3468966 133.477228,18.4606772 133.408154,18.5738525 C133.35561,18.6603984 133.305133,18.7457338 133.25436,18.831977 C133.188828,18.9427315 133.123886,19.0531833 133.061306,19.1627274 C133.043004,19.1948038 133.022931,19.2274854 133.004925,19.2592593 C133.002858,19.2392871 133.000202,19.2190124 132.998135,19.1990403 C132.990165,19.1239936 132.98131,19.0483416 132.972454,18.9726896 C132.965664,18.9130759 132.959761,18.85437 132.952381,18.7944536 C132.969797,18.6655427 132.990165,18.53875 133.009943,18.4113521 C133.031197,18.2739682 133.050679,18.1353738 133.074589,18.0001081 C133.100566,17.8518302 133.130971,17.7074863 133.159899,17.5616293 C133.185581,17.4318106 133.209786,17.3004788 133.237829,17.172173 C133.270595,17.0238952 133.307789,16.8795513 133.343507,16.7336943 C133.373617,16.612046 133.401364,16.4888846 133.433245,16.3690519 C133.473391,16.2201688 133.517964,16.0749171 133.561062,15.9290601 C133.594418,15.81649 133.625413,15.7021042 133.660836,15.5913497 C133.708657,15.4409536 133.761496,15.2947941 133.813154,15.1477267 C133.849167,15.0451426 133.882523,14.9401377 133.920308,14.8390667 C133.97787,14.6844341 134.040745,14.534038 134.102735,14.3830367 C134.139338,14.2937674 134.173285,14.2020772 134.211069,14.1140183 C134.283391,13.946071 134.361321,13.7832679 134.438956,13.6201623 C134.470836,13.5526808 134.50065,13.4827784 134.533417,13.415902 C134.646179,13.1877357 134.764255,12.9644112 134.887349,12.7456257 C135.003949,12.5392472 135.127043,12.3337764 135.256041,12.130424 C135.643329,11.520064 136.084933,10.925137 136.574653,10.355629 C136.574948,10.3553264 136.574948,10.3550238 136.575243,10.3547212 C138.569544,8.03099569 141.000431,6.53581039 142.447745,5.77777778 M151.798147,10.2728905 C151.611496,10.0114837 151.319136,9.84960185 151.001709,9.83147846 C150.86761,9.82349188 148.090194,9.68157652 144.677017,10.5742303 C145.191063,7.02818931 144.76249,4.23411545 144.741047,4.09834361 C144.690307,3.77949481 144.501239,3.50057891 144.226095,3.33931145 C143.951253,3.17712247 143.619026,3.15009097 143.322136,3.26466766 C143.157231,3.32856029 139.718986,4.68013516 136.541087,7.69230406 C135.270772,3.46003166 132.955152,0.53571513 132.843403,0.396257177 C132.642859,0.145601474 132.342043,0 132.024313,0 L132.024011,0 C131.706583,0 131.405767,0.145294298 131.204921,0.395642825 C131.092568,0.53571513 128.763658,3.47416176 127.493948,7.72425037 C124.306988,4.68996479 120.843977,3.32886747 120.677864,3.26466766 C120.380974,3.15009097 120.049049,3.17712247 119.773905,3.33931145 C119.499063,3.50057891 119.309995,3.77949481 119.259255,4.09834361 C119.23751,4.23380827 118.808635,7.02665343 119.322983,10.5726944 C115.909504,9.6818837 113.132994,9.82349188 112.998291,9.83147846 C112.680864,9.84960185 112.388504,10.0114837 112.201853,10.2728905 C112.015202,10.5342974 111.953891,10.8672763 112.035136,11.1796744 C112.109736,11.4668841 113.924902,18.2527114 119.403623,22.3019069 C124.003151,25.6989674 129.623522,26 131.469494,26 C131.715644,26 131.890818,25.994778 131.991392,25.9907847 C131.998641,25.9907847 132.005587,25.9910919 132.012836,25.9910919 L132.013742,25.9910919 C132.115826,25.994778 132.28949,26 132.53262,26 C134.381009,26 139.995037,25.6983531 144.596679,22.3015997 C150.075098,18.2527114 151.890264,11.4668841 151.964864,11.1796744 C152.046109,10.8672763 151.984798,10.5342974 151.798147,10.2728905" id="Fill-1-Copy-5" fill="#B07E4B"></path>
                                <line x1="168" y1="13.5" x2="263.999985" y2="13.4456577" id="Path-7" stroke="#B07E4B" stroke-width="1.5"></line>
                                <line x1="4.54747351e-13" y1="13.4444444" x2="95.9999856" y2="13.4969896" id="Path-7-Copy" stroke="#B07E4B" stroke-width="1.5"></line>
                            </g>
                        </g>
                    </g>
                </g>
            </g>
        </g>
    </g>
</svg>